E63, D66, D77, A86, C17, C84, A28, C74, E40, E11, D50, B81, D19, C42, E65, B37, B60, A55, D60, E72, B41, D11, D63, C44, A56, E91, B35, E58, E77, A23

2345678902 7890123456 2345678905 1234567892 7890123459 3456789016 3456789014 4567890123 8901234567 8901234569 3456789013 8901234570 1234567891 6789012345 2345678904 6789012347 1234567895 3456789017 6789012348 4567890127 9012345679 3456789015 5678901237 5678901235 9012345682 5678901238 8901234571 7890123457 4567890124 2345678901 6789012346 4567890126 2345678903 4567890125 9012345680 9012345678 3456789012 5678901234 1234567890 4567890128 5678901236 7890123458 6789012349 8901234568 9012345681 2345678906 7890123460 1234567894 5678901239 1234567893 

2.7 4.1 3.8 -2.0 -1.0 4.0 -1.0 -1.0 1.7 2.9 -2.0 -1.0 0.6 1.9 -2.0 1.8 -2.0 -1.0 0.3 4.8 -1.0 -2.0 1.3 4.3 3.0 4.6 4.6 -2.0 2.5 0.9 
-2.0 2.5 -2.0 -1.0 2.5 -2.0 0.9 -2.0 2.3 4.1 0.5 2.7 2.3 1.1 -2.0 4.8 -1.0 -1.0 4.9 1.6 -1.0 3.4 2.9 -2.0 2.3 -1.0 -2.0 3.7 1.7 -1.0 
-1.0 -1.0 2.5 0.9 4.6 4.3 -2.0 -2.0 2.8 2.4 2.5 4.8 4.9 0.7 -1.0 -1.0 1.9 0.3 -2.0 -2.0 4.2 -2.0 -1.0 -2.0 -1.0 2.9 3.0 3.8 1.0 1.6 
0.6 -2.0 -1.0 3.0 -2.0 0.8 4.0 -1.0 1.2 5.0 2.4 2.5 -2.0 -1.0 -2.0 1.8 3.1 2.9 -2.0 1.5 -1.0 1.3 0.8 1.1 1.1 3.1 -2.0 1.1 1.4 -1.0 
4.4 2.2 1.4 2.5 -1.0 3.1 -2.0 2.7 2.6 2.2 2.8 3.7 -2.0 -1.0 -2.0 4.5 -2.0 -1.0 1.4 -1.0 -1.0 1.4 -1.0 4.8 2.9 1.3 -2.0 -2.0 -1.0 -2.0 
-2.0 3.0 -2.0 -2.0 -1.0 1.0 -1.0 -2.0 2.5 1.6 0.8 4.1 -1.0 0.7 1.5 4.1 -1.0 2.8 4.2 -2.0 0.6 -1.0 3.2 -1.0 4.0 1.9 1.1 -1.0 0.8 -1.0 
-1.0 -1.0 1.2 -1.0 1.3 -2.0 1.9 4.0 0.4 0.4 -1.0 -1.0 0.7 0.0 0.5 2.9 -1.0 0.3 -1.0 4.6 0.8 1.5 0.8 1.2 2.7 -2.0 -2.0 -1.0 1.8 -2.0 
0.7 4.6 -1.0 -1.0 -2.0 0.5 2.3 -1.0 4.0 -2.0 -2.0 -2.0 1.7 0.3 1.3 -1.0 0.4 -1.0 -1.0 -2.0 2.1 -1.0 2.8 -2.0 0.3 2.3 -1.0 3.5 1.1 4.7 
-1.0 -2.0 3.6 1.3 -2.0 3.2 4.0 2.6 0.6 3.3 -1.0 -1.0 -1.0 0.8 2.2 -1.0 -2.0 2.7 0.6 3.4 -1.0 3.5 -1.0 -2.0 4.1 -1.0 2.6 -1.0 3.9 3.3 
4.8 1.6 -1.0 0.9 -2.0 3.5 -1.0 2.3 -2.0 3.3 4.2 0.4 0.4 -2.0 -1.0 -1.0 -2.0 2.8 0.3 0.8 3.1 4.4 -1.0 4.4 1.7 -1.0 0.3 -1.0 0.4 -1.0 
-1.0 -1.0 -1.0 1.3 1.2 2.0 2.2 0.5 -2.0 0.7 1.4 4.3 2.5 -2.0 -1.0 1.3 -2.0 0.3 -1.0 -2.0 0.7 0.4 -1.0 1.3 0.5 -1.0 -2.0 2.5 -1.0 1.9 
-1.0 -2.0 1.3 1.7 -1.0 -1.0 -2.0 0.4 2.0 3.8 2.6 1.7 -2.0 4.8 1.3 1.6 4.9 1.1 3.4 -2.0 0.7 3.4 3.1 0.7 -1.0 -1.0 1.0 0.5 1.4 3.5 
-1.0 1.2 -2.0 4.5 2.6 2.1 -1.0 3.9 3.3 1.3 4.8 0.4 1.5 -2.0 0.9 -1.0 -2.0 -1.0 -2.0 0.8 2.7 -1.0 -2.0 1.0 3.1 -2.0 4.7 4.1 -2.0 -2.0 
-1.0 -1.0 4.4 0.7 2.5 2.3 1.6 -1.0 1.5 4.2 0.1 -1.0 1.3 2.8 4.8 -1.0 4.5 0.0 -1.0 -2.0 4.4 -1.0 1.7 2.9 -2.0 0.8 1.7 -1.0 -2.0 4.0 
4.7 4.0 1.8 -2.0 3.8 1.3 4.4 4.7 3.3 4.1 -1.0 1.1 0.3 -1.0 1.1 0.1 2.2 0.5 4.5 2.2 1.7 -1.0 -2.0 -1.0 4.4 3.4 1.3 -1.0 2.9 2.4 
-1.0 -1.0 -1.0 -2.0 0.8 -1.0 -1.0 0.4 2.7 -2.0 -2.0 -2.0 2.0 3.5 2.6 -2.0 -1.0 3.5 2.9 2.5 4.3 2.7 3.5 3.1 0.7 3.6 0.3 -1.0 3.4 -2.0 
-2.0 3.6 0.4 -2.0 4.3 4.1 -2.0 4.4 -2.0 0.5 4.1 4.8 3.9 1.5 1.3 4.6 2.8 4.4 1.8 1.7 -1.0 -1.0 2.9 1.7 4.7 1.1 4.2 -2.0 -1.0 -2.0 
2.0 -1.0 1.3 3.6 3.6 -1.0 -1.0 -1.0 -2.0 4.3 0.3 1.3 -2.0 3.5 -2.0 4.7 -1.0 1.3 -2.0 -1.0 0.1 -1.0 -2.0 4.1 -1.0 4.4 -1.0 0.7 -1.0 0.6 
-2.0 3.3 -1.0 0.4 2.5 2.1 1.3 3.0 2.1 -2.0 -2.0 -2.0 -1.0 -2.0 -2.0 2.1 1.5 -2.0 -2.0 1.1 1.5 -1.0 -2.0 1.2 1.0 2.9 2.1 -1.0 1.2 1.7 
4.0 -2.0 2.0 3.3 1.3 1.9 3.9 2.7 0.7 -1.0 -1.0 3.2 1.8 3.0 2.4 -1.0 4.1 -2.0 3.9 4.3 3.1 -1.0 2.3 3.0 2.4 -1.0 0.5 1.7 1.7 4.0 
1.9 -2.0 2.3 3.3 1.9 -1.0 0.8 0.4 3.1 3.2 -2.0 2.6 -2.0 -2.0 2.3 4.0 0.6 -2.0 -2.0 -1.0 -1.0 1.3 -1.0 1.8 0.6 1.3 -1.0 3.2 3.1 0.7 
1.6 1.9 4.1 -1.0 0.4 -2.0 -1.0 -1.0 -1.0 1.0 1.9 -1.0 4.4 1.8 3.5 1.7 4.5 -2.0 3.9 0.3 3.2 2.9 -1.0 -2.0 3.2 4.4 -1.0 -1.0 3.2 -2.0 
1.9 1.4 -2.0 -2.0 3.5 -2.0 -2.0 3.5 4.7 -1.0 -1.0 -1.0 -2.0 3.2 -2.0 -2.0 0.6 2.5 4.9 3.1 -2.0 2.3 -2.0 2.4 -2.0 -2.0 -2.0 4.8 0.3 -1.0 
1.2 -1.0 -1.0 2.3 -1.0 4.3 4.4 1.9 3.9 3.9 1.1 0.8 2.9 2.6 1.0 -2.0 1.8 -2.0 -1.0 -1.0 -2.0 4.6 3.0 0.7 -2.0 1.7 1.0 0.3 0.4 3.3 
0.9 3.4 1.5 -2.0 -2.0 4.3 2.4 -2.0 3.0 -1.0 -2.0 4.4 2.5 4.2 -2.0 3.6 3.3 0.6 3.0 2.4 0.1 -2.0 1.7 4.6 -1.0 4.6 -1.0 3.9 -2.0 3.2 
-1.0 0.1 3.3 -2.0 3.0 -1.0 -1.0 -1.0 -2.0 2.5 3.9 4.1 -2.0 0.5 -1.0 -1.0 -2.0 2.2 -1.0 0.4 0.3 2.1 -2.0 -1.0 2.9 2.5 -1.0 1.4 -1.0 -1.0 
-1.0 4.8 4.3 3.9 -1.0 4.9 2.3 -1.0 -1.0 -2.0 -1.0 -2.0 4.8 1.3 -1.0 0.6 2.5 -1.0 2.3 -1.0 4.4 1.2 3.2 2.1 -2.0 5.0 2.0 0.2 0.0 0.7 
-1.0 4.8 1.3 4.3 1.9 4.3 4.8 -2.0 3.0 3.0 4.5 4.9 -1.0 -2.0 1.6 -1.0 -2.0 2.4 4.3 4.1 -1.0 -1.0 -2.0 3.8 4.3 2.9 -2.0 -2.0 -1.0 -1.0 
-2.0 0.2 3.0 2.2 -1.0 4.2 2.8 2.9 1.8 -2.0 2.6 0.0 1.0 1.6 0.5 3.6 -1.0 4.0 -1.0 4.9 0.8 -1.0 -2.0 1.9 -1.0 0.4 2.3 -2.0 -2.0 3.9 
-2.0 2.6 -1.0 2.4 -2.0 -2.0 -2.0 2.5 3.9 4.2 1.1 2.0 -2.0 -1.0 4.3 1.8 -2.0 2.9 1.6 1.2 -2.0 1.1 2.1 -1.0 2.1 2.6 -1.0 -2.0 -2.0 -2.0 
2.5 -1.0 0.7 0.6 -1.0 -1.0 2.3 4.4 4.6 1.3 -1.0 3.2 4.5 3.6 0.1 4.6 -1.0 -1.0 1.5 2.0 2.0 4.2 3.5 -1.0 2.3 3.5 -1.0 3.3 3.0 0.3 
2.0 -1.0 2.7 4.3 2.1 -1.0 2.0 -1.0 1.7 0.1 -2.0 2.7 2.9 -2.0 -1.0 -1.0 3.0 -1.0 -1.0 0.3 3.9 3.4 -1.0 -2.0 -1.0 -1.0 -2.0 -2.0 2.6 -2.0 
4.7 -2.0 4.0 3.2 3.5 1.2 0.5 -2.0 -2.0 -1.0 5.0 0.8 -1.0 4.9 2.5 -1.0 0.3 -1.0 1.6 3.2 1.0 -2.0 0.3 3.1 2.5 -2.0 0.4 -2.0 1.2 -2.0 
-1.0 1.6 1.5 -1.0 1.0 1.3 1.2 4.7 0.5 0.3 3.7 -2.0 0.6 -1.0 0.1 2.5 3.4 -1.0 1.4 -2.0 -1.0 -1.0 -1.0 -2.0 -2.0 1.3 -2.0 -2.0 3.4 4.0 
4.1 -2.0 -2.0 1.6 -2.0 -2.0 -2.0 -2.0 -2.0 3.0 2.7 1.0 -1.0 0.7 -2.0 0.3 4.9 1.1 -1.0 -2.0 3.9 1.5 2.2 1.7 1.3 -2.0 -1.0 -1.0 2.6 -2.0 
2.3 0.3 3.2 2.8 3.7 -2.0 2.4 4.7 -2.0 5.0 4.4 2.9 -1.0 3.8 -1.0 3.1 4.9 -2.0 -1.0 1.2 -1.0 -1.0 -2.0 4.6 0.6 -1.0 2.1 3.7 -1.0 1.2 
-2.0 4.5 3.8 -1.0 -2.0 -1.0 -1.0 -1.0 -2.0 -2.0 -2.0 3.2 -2.0 -1.0 4.7 -1.0 -1.0 -2.0 -2.0 -2.0 -2.0 -2.0 3.9 -1.0 -1.0 4.9 0.5 3.7 0.7 2.8 
-1.0 0.3 -1.0 -2.0 -1.0 -2.0 0.2 0.8 1.1 0.9 4.2 -2.0 1.1 -2.0 -2.0 -2.0 1.5 1.3 -2.0 1.0 2.1 3.0 -2.0 4.7 -2.0 -2.0 0.8 -2.0 2.9 2.7 
-2.0 -1.0 0.2 2.6 0.5 -1.0 4.6 -1.0 0.5 3.0 1.6 -1.0 0.9 1.5 -1.0 4.2 -2.0 3.3 2.9 0.3 2.1 3.2 0.9 -2.0 -2.0 2.9 -2.0 0.7 1.8 -1.0 
-1.0 -1.0 -2.0 -2.0 3.3 2.7 -1.0 0.8 4.0 -1.0 2.9 2.7 3.1 -1.0 1.0 0.5 3.2 -2.0 2.3 -2.0 -2.0 2.6 0.4 3.8 0.5 3.5 0.4 -1.0 2.5 4.5 
4.2 4.4 -2.0 -2.0 -1.0 1.0 2.3 3.6 1.9 0.5 1.0 1.0 -2.0 -1.0 2.2 -1.0 -2.0 -1.0 -1.0 2.5 5.0 -1.0 4.5 -2.0 0.1 3.9 2.0 -1.0 1.4 3.2 
2.4 3.6 1.5 3.3 4.0 3.8 3.4 -1.0 -2.0 0.1 3.8 2.4 -1.0 1.1 -1.0 -2.0 4.0 0.6 4.8 -2.0 -2.0 -1.0 2.3 2.5 -1.0 3.6 3.8 2.8 4.8 -1.0 
3.5 1.4 -2.0 4.8 2.8 4.1 -2.0 -2.0 -2.0 -2.0 -2.0 4.4 -1.0 -2.0 -2.0 -2.0 2.1 3.9 0.9 -1.0 4.5 4.0 -1.0 3.7 2.5 -2.0 1.8 4.0 3.5 3.2 
-2.0 3.6 -1.0 4.8 -2.0 1.8 3.4 1.6 1.6 0.3 -1.0 4.0 -2.0 0.5 -2.0 -2.0 2.9 2.2 3.5 1.6 -1.0 -1.0 0.9 3.3 1.5 -2.0 2.2 3.0 4.7 -1.0 
1.9 -2.0 -1.0 -1.0 1.1 4.0 -1.0 4.7 2.7 3.0 1.8 4.5 1.7 -1.0 -1.0 4.1 -1.0 -1.0 -2.0 1.1 -2.0 -2.0 -1.0 3.0 -1.0 0.9 -1.0 2.9 0.4 1.3 
3.3 3.8 3.1 0.5 3.7 -2.0 2.5 4.4 0.4 -1.0 0.3 -2.0 1.5 1.4 4.2 3.0 -1.0 -2.0 -2.0 -1.0 4.1 0.8 1.6 -2.0 2.4 0.8 3.2 -2.0 0.4 -1.0 
2.3 3.7 -2.0 2.5 -2.0 -1.0 -2.0 0.8 2.3 -2.0 3.6 3.0 -2.0 3.2 0.3 -2.0 3.5 -2.0 2.5 1.8 4.6 -1.0 -2.0 -1.0 4.9 4.8 -1.0 4.9 2.5 -2.0 
1.6 2.4 -2.0 0.5 5.0 -1.0 0.9 0.8 2.9 4.2 2.8 0.3 1.6 -2.0 1.0 2.0 0.2 4.9 0.9 4.7 -2.0 4.0 2.5 -2.0 4.0 3.3 1.2 0.6 2.7 -2.0 
-2.0 -2.0 2.0 1.9 3.6 3.2 2.2 -2.0 4.6 4.1 4.0 -2.0 -1.0 4.4 2.9 1.7 -1.0 2.6 3.8 -1.0 -1.0 2.0 0.4 -2.0 -2.0 -1.0 -1.0 4.6 1.7 0.3 
-2.0 -2.0 4.5 4.9 3.2 2.5 4.5 -2.0 1.3 -1.0 4.6 1.9 4.5 -1.0 -2.0 1.0 -2.0 4.6 3.0 3.3 -2.0 4.3 -1.0 -2.0 -2.0 -2.0 -1.0 -2.0 1.1 4.1 
